module crypto-api

go 1.21

require (
	github.com/go-chi/chi/v5 v5.0.10
	github.com/ilyakaznacheev/cleanenv v1.5.0
)

require (
	github.com/davecgh/go-spew v1.1.1 // indirect
	github.com/jackc/pgpassfile v1.0.0 // indirect
	github.com/jackc/pgservicefile v0.0.0-20221227161230-091c0ba34f0a // indirect
	github.com/jackc/puddle/v2 v2.2.1 // indirect
	github.com/kr/text v0.2.0 // indirect
	github.com/pmezard/go-difflib v1.0.0 // indirect
	github.com/rogpeppe/go-internal v1.11.0 // indirect
	golang.org/x/crypto v0.9.0 // indirect
	golang.org/x/sync v0.4.0 // indirect
	golang.org/x/text v0.9.0 // indirect
)

require (
	github.com/BurntSushi/toml v1.2.1 // indirect
	github.com/golang/mock v1.6.0
	github.com/jackc/pgx/v5 v5.4.3
	github.com/joho/godotenv v1.5.1
	github.com/stretchr/testify v1.8.4
	gopkg.in/yaml.v3 v3.0.1 // indirect
	olympos.io/encoding/edn v0.0.0-20201019073823-d3554ca0b0a3 // indirect
)
